Compare Ssd1 target transcripts against Hogan 2008, Jansen 2009, Hose 2020
…
ssd1_data_hogan2008 <-
  readxl::read_excel(path = "../input_targets/journal.pbio.0060255.sd003_Hogan2008_Dataset_S3.xls",
                     sheet = "Ssd1_sam",skip=1,
                     col_names = c("Gene",
                                   "Score",
                                   "Numerator",
                                   "Denominator",
                                   "FoldChange",
                                   "qvalue",
                                   "localfdr")
  )

ssd1_data_hogan2008

## # A tibble: 5,044 x 7
##    Gene               Score Numerator Denominator FoldChange qvalue  localfdr
##    <chr>              <dbl>     <dbl>       <dbl>      <dbl>  <dbl>     <dbl>
##  1 YKL101W_ORF        12.8       4.75       0.371      32.8       0 0.000647 
##  2 YJL158C_ORF        12.1       3.51       0.289      12.0       0 0.0000756
##  3 YNL239W_ORF        12.0       2.77       0.232       7.12      0 0        
##  4 YCL051W_ORF        10.4       2.67       0.256       6.92      0 0        
##  5 YOR383C_ORF         8.97      2.92       0.326       8.36      0 0.00622  
##  6 YJL158C_AAA_29_NCR  8.85      3.35       0.378      10.9       0 0.00945  
##  7 YNL066W_ORF         8.12      4.87       0.599      46.8       0 0.0450   
##  8 YLR190W_ORF         7.99      3.12       0.391      10.2       0 0.0534   
##  9 YGR014W_ORF         7.65      2.03       0.265       4.33      0 0.0766   
## 10 YOR383C_OCH__ORF    7.29      2.84       0.390       8.70      0 0.0958   
## #  with 5,034 more rows
…
Jansen 2009

Reading data from Jansen 2009.

Surprisingly, the gene systematic names in this table are not completely systematic.

ssd1_data_jansen2009 <-
    readxl::read_excel(path = "../input_targets/NIHMS158901-supplement-02.xls",
                       sheet=1)

ssd1_data_jansen2009 

## # A tibble: 172 x 23
##    ProbeID Sequence PerfectHits chrom start end   `Score(d)` `Numerator(r)`
##    <chr>   <chr>          <dbl> <chr> <chr> <chr>      <dbl>          <dbl>
##  1 SC5p.Y TACCGCG           1 chr14 5015 5016      15.3            7.70
##  2 SC5p.Y CAGAAAT           1 chr11 2501 2502       4.78           7.59
##  3 SC5p.Y CGGTATC           1 chr11 2520 2521       4.43           7.51
##  4 SC5p.Y TTTTGAA           1 chr12 5354 5355       6.94           7.18
##  5 SCorf. GGACATT           1 chr3  36821 36890       6.20           6.12
##  6 SCint. TCAATTA           1 chr11 5203 5204       4.15           5.84
##  7 SCint. GTATCCC           1 chr7  2003 2004       4.46           5.61
##  8 YKL101 TTGTAAA           1 chr11 2529 2530       4.47           5.54
##  9 SCorf. ACACATT           1 chr3  36598 36667       4.65           5.50
## 10 YLR190 GTTGCTT           1 chr12 5365 5366       6.93           5.40
## #  with 162 more rows, and 15 more variables: `Denominator(s+s0)` <dbl>, `Fold
## #   Change` <dbl>, `q-value(%)` <dbl>, `localfdr(%)` <dbl>, strand <chr>,
## #   `inter/genic?` <chr>, `gene name` <chr>, sys_id <chr>, `probe
## #   strand` <chr>, `left_gene sys id` <chr>, `left gene name` <chr>,
## #   left_gene_dist <chr>, `right_gene sys id` <chr>, `right gene name` <chr>,
## #   right_gene_dist <chr>
…
Hose 2020

ssd1_data_hose2020 <-
    readxl::read_excel(path = "../input_targets/elife-52063-supp2-v2_Hose2020.xlsx",
                       range = "A2:E6715",
                       col_names = c("Gene",
                                     "Annotation",
                                     "Bound",
                                     "RNA_DE",
                                     "Prot_DE")
    )

ssd1_data_hose2020

## # A tibble: 6,714 x 5
##    Gene    Annotation                                       Bound RNA_DE Prot_DE
##    <chr>   <chr>                                            <chr> <chr>  <chr>  
##  1 YBR162C "YBR162C    ...    TOS1    biological process u yes   .      yes    
##  2 YDL055C "YDL055C    ...    PSA1    protein amino acid g yes   .      yes    
##  3 YFR033C "YFR033C    ...    QCR6    aerobic respiration* yes   .      yes    
##  4 YGR282C "YGR282C    ...    BGL2    cell wall organizati yes   .      yes    
##  5 YIL123W "YIL123W    ...    SIM1    microtubule cytoskel yes   yes    yes    
##  6 YJL158C "YJL158C    ...    CIS3    cell wall organizati yes   yes    yes    
##  7 YJL159W "YJL159W    ...    HSP150    cell wall organiza yes   .      yes    
##  8 YKL101W "YKL101W    ...    HSL1    protein amino acid p yes   .      yes    
##  9 YKR042W "YKR042W    ...    UTH1    mitochondrion organi yes   .      yes    
## 10 YLR110C "YLR110C    ...    CCW12    cell wall organizat yes   .      yes    
## #  with 6,704 more rows
…
