DeSeq2 analysis of Ssd1 enrichment compared RNA-seq, on full-length transcripts
…
Load Ssd1-bound genewise counts

counts_Ssd1_stranded <- readr::read_tsv("../Ssd1_CRAC_demult_dedup_20190114_all/multicov_analyses/allsample_transcriptcounts.txt",
                                 comment = "#") %>% 
  dplyr::mutate(Gene=gene_from_attr(attributes))%>%
  dplyr::select(Gene,seqname,feature,start,end,attributes,
         Ssd1_3_30 = `20190114_Ssd1_CRAC_trimmed_NNNGTGAGC_SSD1_3_30.bam`,
         Ssd1_4_30 = `20190114_Ssd1_CRAC_trimmed_NNNTGGAGC_SSD1_4_30.bam`,
         Ssd1_3_42 = `20190114_Ssd1_CRAC_trimmed_NNNAGAGC_SSD1_3_42.bam`,
         Ssd1_4_42 = `20190114_Ssd1_CRAC_trimmed_NNNCTAGC_SSD1_4_42.bam`, 
         BY4741 = `20190114_Ssd1_CRAC_trimmed_NNNGACTTAGC_BY4741.bam`) 

counts_Ssd1_stranded

## # A tibble: 5,090 x 11
##    Gene  seqname feature  start    end attributes Ssd1_3_30 Ssd1_4_30 Ssd1_3_42
##    <chr> <chr>   <chr>    <dbl>  <dbl> <chr>          <dbl>     <dbl>     <dbl>
##  1 YAL0 chrI    primar 147469 151191 ID=YAL001        25         0        49
##  2 YAL0 chrI    primar 143682 147656 ID=YAL002        16        15        10
##  3 YAL0 chrI    primar 142153 143381 ypd=4653;       410       183       302
##  4 YAL0 chrI    primar 139357 141493 ypd=236;I       273       115      1961
##  5 YAL0 chrI    primar 137552 138414 ypd=203;I        17         9         1
##  6 YAL0 chrI    primar 136866 137637 ypd=146;I         0         0        19
##  7 YAL0 chrI    primar 135823 136756 ypd=6;ID=         4         0         5
##  8 YAL0 chrI    primar 134025 135699 ypd=2;ID=         8         4         9
##  9 YAL0 chrI    primar 132195 134173 ypd=3;ID=         1         9         0
## 10 YAL0 chrI    primar 130735 132082 ypd=667;I        39        42        59
## #  with 5,080 more rows, and 2 more variables: Ssd1_4_42 <dbl>, BY4741 <dbl>
…
tresults_Ssd1bind30 %>%
  dplyr::arrange(desc(estimate)) %>%
  readr::write_tsv(tresultsfile_30, col_names = TRUE, append = TRUE)

enriched_Ssd1bind30 <- 
  dplyr::filter(tresults_Ssd1bind30, estimate > 2, p.adjusted < 0.05) %>%
  dplyr::arrange(desc(estimate))

enriched_Ssd1bind30

## # A tibble: 79 x 7
##    gene      baseMean estimate stderror statistic   p.value p.adjusted
##    <chr>        <dbl>    <dbl>    <dbl>     <dbl>     <dbl>      <dbl>
##  1 YLR308W       23.2    10.9    1.99        4.44 8.82e-  6  7.35e-  4
##  2 YKR041W     9166.     10.3    0.0880     93.9  0.         0.       
##  3 YHR079C-A     68.1     9.20   0.761       9.46 3.08e- 21  5.59e- 19
##  4 YNL066W    76122.      8.22   0.0404    154.   0.         0.       
##  5 YLR081W      374.      8.07   0.341      17.8  1.09e- 70  3.07e- 68
##  6 YBL043W      382.      7.27   0.309      17.0  5.09e- 65  1.36e- 62
##  7 YJL116C     1295.      6.98   0.135      36.8  5.52e-297  4.01e-294
##  8 YNR072W       34.4     6.47   0.902       4.95 7.40e-  7  6.84e-  5
##  9 YIL123W    33659.      6.44   0.139      32.0  1.15e-224  6.52e-222
## 10 YDR525W-A    721.      6.12   0.529       7.78 7.44e- 15  1.06e- 12
## #  with 69 more rows
…
tresults_Ssd1bind42 %>%
  dplyr::arrange(desc(estimate)) %>%
  readr::write_tsv(tresultsfile_42, col_names = TRUE, append = TRUE)

enriched_Ssd1bind42 <- 
  dplyr::filter(tresults_Ssd1bind42, estimate > 2, p.adjusted < 0.05) %>%
  dplyr::arrange(desc(estimate))

enriched_Ssd1bind42

## # A tibble: 56 x 7
##    gene      baseMean estimate stderror statistic   p.value p.adjusted
##    <chr>        <dbl>    <dbl>    <dbl>     <dbl>     <dbl>      <dbl>
##  1 YKR041W     7702.     10.8     0.538     16.3  6.17e- 60  7.85e- 57
##  2 YLR154W-C    594.      8.78    0.662     10.2  1.36e- 24  4.07e- 22
##  3 YBR040W      119.      8.01    0.541     11.1  1.09e- 28  3.70e- 26
##  4 YBL043W      343.      6.99    0.406     12.3  1.15e- 34  5.84e- 32
##  5 YNL066W    10227.      6.76    0.200     23.8  1.10e-125  5.59e-122
##  6 YDR449C      943.      6.67    0.282     16.6  8.92e- 62  1.51e- 58
##  7 YJL116C     1751.      6.65    0.312     14.9  3.22e- 50  2.73e- 47
##  8 YIL123W     7625.      6.23    0.220     19.2  4.99e- 82  1.27e- 78
##  9 YBR301W       24.4     5.91    1.13       3.45 5.69e-  4  4.99e-  2
## 10 YLR081W      327.      5.73    0.527      7.07 1.54e- 12  3.02e- 10
## #  with 46 more rows
…
