Ssd1 enrichment from normalizing to RNA-seq on full-length transcripts
…
# rename: ("Ssd1_3_30","Ssd1_4_30","Ssd1_3_42","Ssd1_4_42", "BY4741"))

tpms_Ssd1_stranded <-  counts_Ssd1_stranded %>% 
  select(Gene, Ssd1_3_30,Ssd1_4_30,Ssd1_3_42,Ssd1_4_42,BY4741) %>%
  mutate_if(is.numeric,
            calc_tpm,
            eff_length = counts_Ssd1_stranded$end - counts_Ssd1_stranded$start)

counts_Ssd1_stranded

## # A tibble: 5,090 x 11
##    Gene  seqname feature  start    end attributes Ssd1_3_30 Ssd1_4_30 Ssd1_3_42
##    <chr> <chr>   <chr>    <dbl>  <dbl> <chr>          <dbl>     <dbl>     <dbl>
##  1 YAL0 chrI    primar 147469 151191 ID=YAL001        25         0        49
##  2 YAL0 chrI    primar 143682 147656 ID=YAL002        16        15        10
##  3 YAL0 chrI    primar 142153 143381 ypd=4653;       410       183       302
##  4 YAL0 chrI    primar 139357 141493 ypd=236;I       273       115      1961
##  5 YAL0 chrI    primar 137552 138414 ypd=203;I        17         9         1
##  6 YAL0 chrI    primar 136866 137637 ypd=146;I         0         0        19
##  7 YAL0 chrI    primar 135823 136756 ypd=6;ID=         4         0         5
##  8 YAL0 chrI    primar 134025 135699 ypd=2;ID=         8         4         9
##  9 YAL0 chrI    primar 132195 134173 ypd=3;ID=         1         9         0
## 10 YAL0 chrI    primar 130735 132082 ypd=667;I        39        42        59
## #  with 5,080 more rows, and 2 more variables: Ssd1_4_42 <dbl>, BY4741 <dbl>
…
## Joining, by = "Gene"

What the TPM joined data look like

tpm_join_bycondition

## # A tibble: 10,180 x 6
## # Groups:   Gene [5,090]
##    Gene    Name  Condition TPM.RNA TPM.Ssd1 ratio.Ssd1.RNA
##    <chr>   <chr> <chr>       <dbl>    <dbl>          <dbl>
##  1 YAL001C TFC3  30           38.6     22.8          0.590
##  2 YAL001C TFC3  42           42.5     56.9          1.34 
##  3 YAL002W VPS8  30           23.7     34.1          1.44 
##  4 YAL002W VPS8  42           18.6     13.6          0.732
##  5 YAL003W EFB1  30         1880.    1940.           1.03 
##  6 YAL003W EFB1  42         2563.    1688.           0.659
##  7 YAL005C SSA1  30         1242.     725.           0.584
##  8 YAL005C SSA1  42        12064.    6180.           0.512
##  9 YAL007C ERP2  30          245.     123.           0.504
## 10 YAL007C ERP2  42          115.      21.9          0.191
## #  with 10,170 more rows
…
Ssd1-enriched genes by crude TPM ratios

These are familiar: TOS1, TOS6, SUN4/SIM1/UTH1/SRL1, etc.

tpm_join_bycondition %>%
  filter(Condition=="30",TPM.RNA > 20) %>%
  arrange(desc(ratio.Ssd1.RNA))

## # A tibble: 4,391 x 6
## # Groups:   Gene [4,391]
##    Gene      Name  Condition TPM.RNA TPM.Ssd1 ratio.Ssd1.RNA
##    <chr>     <chr> <chr>       <dbl>    <dbl>          <dbl>
##  1 YNL066W   SUN4  30          169.    36856.          218. 
##  2 YIL123W   SIM1  30          207.    13206.           63.7
##  3 YDR525W-A SNA2  30           27.9    1395.           50.1
##  4 YGR041W   BUD9  30           48.4    2146.           44.4
##  5 YIL042C   PKP1  30           24.5     816.           33.3
##  6 YOR247W   SRL1  30         1253.    39858.           31.8
##  7 YHR143W   DSE2  30          488.    15218.           31.2
##  8 YKR042W   UTH1  30         1214.    31076.           25.6
##  9 YDR441C   APT2  30           30.4     747.           24.6
## 10 YER046W   SPO73 30           22.0     513.           23.4
## #  with 4,381 more rows

tpm_join_bycondition %>%
  filter(Condition=="42",TPM.RNA > 20) %>%
  arrange(desc(ratio.Ssd1.RNA))

## # A tibble: 3,882 x 6
## # Groups:   Gene [3,882]
##    Gene      Name  Condition TPM.RNA TPM.Ssd1 ratio.Ssd1.RNA
##    <chr>     <chr> <chr>       <dbl>    <dbl>          <dbl>
##  1 YNL066W   SUN4  42           48.1    4463.           92.7
##  2 YIL123W   SIM1  42           42.1    2657.           63.1
##  3 YKR042W   UTH1  42          762.    28523.           37.4
##  4 YOR247W   SRL1  42          233.     8392.           36.0
##  5 YDR528W   HLR1  42           27.1     740.           27.3
##  6 YLR110C   CCW12 42         4714.   115227.           24.4
##  7 YDR525W-A SNA2  42           53.3    1171.           22.0
##  8 YHR071W   PCL5  42          246.     4725.           19.2
##  9 YGR279C   SCW4  42          201.     3322.           16.5
## 10 YKL096W-A CWP2  42         1754.    28365.           16.2
## #  with 3,872 more rows
…
Ssd1_targets_TPMratio5x_42C <- 
  tpm_join_bycondition %>%
  filter(Condition=="42",TPM.RNA > 20, ratio.Ssd1.RNA > 5) %>%
  arrange(desc(ratio.Ssd1.RNA))

write_tsv(x = Ssd1_targets_TPMratio5x_42C,
          path="../results/Ssd1_targets_TPMratio5x_42C.txt")

Which genes are enriched at 42C not 30C?

Ssd1_targets_TPMratio5x_42C %>% 
  filter(! Gene %in% Ssd1_targets_TPMratio5x_30C$Gene)

## # A tibble: 23 x 6
## # Groups:   Gene [23]
##    Gene      Name  Condition TPM.RNA TPM.Ssd1 ratio.Ssd1.RNA
##    <chr>     <chr> <chr>       <dbl>    <dbl>          <dbl>
##  1 YKL096W-A CWP2  42         1754.    28365.          16.2 
##  2 YOL026C   MIM1  42          110.     1179.          10.7 
##  3 YNL283C   WSC2  42           39.5     393.           9.95
##  4 YGL029W   CGR1  42           25.8     250.           9.69
##  5 YLR297W   <NA>  42           28.3     274.           9.66
##  6 YFR017C   IGD1  42          167.     1485.           8.91
##  7 YNL197C   WHI3  42           44.7     370.           8.29
##  8 YDR309C   GIC2  42           51.0     364.           7.13
##  9 YML041C   VPS71 42           32.4     223.           6.86
## 10 YPR138C   MEP3  42           35.2     238.           6.76
## #  with 13 more rows

The highest-expressed genes at 42C are not enriched in Ssd1 binding

tpm_join_bycondition %>%
  filter(Condition=="42") %>%
  arrange(desc(TPM.RNA))

## # A tibble: 5,090 x 6
## # Groups:   Gene [5,090]
##    Gene      Name   Condition TPM.RNA TPM.Ssd1 ratio.Ssd1.RNA
##    <chr>     <chr>  <chr>       <dbl>    <dbl>          <dbl>
##  1 YGR192C   TDH3   42         31026.   19309.          0.622
##  2 YFL014W   HSP12  42         30667.   10196.          0.332
##  3 YBR072W   HSP26  42         22231.    6502.          0.292
##  4 YER103W   SSA4   42         22095.    3857.          0.175
##  5 YMR251W-A HOR7   42         14528.   13904.          0.957
##  6 YCR012W   PGK1   42         14014.    3940.          0.281
##  7 YLL026W   HSP104 42         13415.    4463.          0.333
##  8 YAL005C   SSA1   42         12064.    6180.          0.512
##  9 YLL024C   SSA2   42         11868.    5216.          0.439
## 10 YLR109W   AHP1   42         11658.    6400.          0.549
## #  with 5,080 more rows

These,e.g.Hsp104, arent enriched in Ssd1 binding.

Highly-expressed genes at 42C over 2x enriched in Ssd1 binding

tpm_join_bycondition %>%
  filter(Condition=="42",ratio.Ssd1.RNA > 2) %>%
  arrange(desc(TPM.RNA))

## # A tibble: 663 x 6
## # Groups:   Gene [663]
##    Gene      Name   Condition TPM.RNA TPM.Ssd1 ratio.Ssd1.RNA
##    <chr>     <chr>  <chr>       <dbl>    <dbl>          <dbl>
##  1 YPR036W-A SPO24  42          5927.   31629.           5.34
##  2 YLR110C   CCW12  42          4714.  115227.          24.4 
##  3 YJR104C   SOD1   42          3663.    8347.           2.28
##  4 YJL159W   HSP150 42          3245.   18054.           5.56
##  5 YML028W   TSA1   42          3226.    8110.           2.51
##  6 YER150W   SPI1   42          2187.    4524.           2.07
##  7 YBR067C   TIP1   42          1788.    3649.           2.04
##  8 YKL096W-A CWP2   42          1754.   28365.          16.2 
##  9 YDL133C-A RPL41B 42          1752.    4126.           2.36
## 10 YPL250C   ICY2   42          1426.    5394.           3.78
## #  with 653 more rows
…
