Peak analysis of Ssd1 CRAC data
…
# setwd("~/Repos/Ssd1_CRACanalysis_2020/rmarkdown")
S3_30_df <- read_FDR_gff("../Ssd1_CRAC_demult_dedup_20190114_all/pyCalculateFDRs_analyses/20190114_Ssd1_CRAC_trimmed_NNNGTGAGC_SSD1_3_30_output_FDRs.gtf")
S3_42_df <- read_FDR_gff("../Ssd1_CRAC_demult_dedup_20190114_all/pyCalculateFDRs_analyses/20190114_Ssd1_CRAC_trimmed_NNNAGAGC_SSD1_3_42_output_FDRs.gtf")
S4_30_df <- read_FDR_gff("../Ssd1_CRAC_demult_dedup_20190114_all/pyCalculateFDRs_analyses/20190114_Ssd1_CRAC_trimmed_NNNTGGAGC_SSD1_4_30_output_FDRs.gtf")
S4_42_df <- read_FDR_gff("../Ssd1_CRAC_demult_dedup_20190114_all/pyCalculateFDRs_analyses/20190114_Ssd1_CRAC_trimmed_NNNCTAGC_SSD1_4_42_output_FDRs.gtf")

Sort dataframes

Print top peaks by (deduplicated) coverage in each sample.

S3_30_df %>%
    arrange(desc(peak_height)) %>%
    print_gff_nice()

## # A tibble: 5,793 x 7
##    chromosome   start     end peak_height strand ID        Gene   
##    <chr>        <int>   <int>       <dbl> <chr>  <chr>     <chr>  
##  1 chrXIV      501055  501128        7323 +      YNL066W   SUN4   
##  2 chrIV      1017207 1017270        3913 -      YDR278C   YDR278C
##  3 chrXII      370037  370099        2898 -      YLR110C   CCW12  
##  4 chrXI       519329  519523        2654 +      YKR042W   UTH1   
##  5 chrXII      370110  370140        2516 -      YLR110C   CCW12  
##  6 chrIX       127491  127637        2049 +      YIL123W   SIM1   
##  7 chrXV       797552  797597        2017 +      YOR247W   SRL1   
##  8 chrX        121774  121850        2014 +      YJL159W   HSP150 
##  9 chrXII      462523  462578        1742 -      YLR154C-G <NA>   
## 10 chrXV       797629  797727        1310 +      YOR247W   SRL1   
## #  with 5,783 more rows

S3_42_df %>%
    arrange(desc(peak_height)) %>%
    print_gff_nice()

## # A tibble: 5,835 x 7
##    chromosome  start    end peak_height strand ID        Gene  
##    <chr>       <int>  <int>       <dbl> <chr>  <chr>     <chr> 
##  1 chrX       121721 121857        3359 +      YJL159W   HSP150
##  2 chrXII     370037 370102        2922 -      YLR110C   CCW12 
##  3 chrXI      519383 519515        2917 +      YKR042W   UTH1  
##  4 chrXII     370111 370136        1853 -      YLR110C   CCW12 
##  5 chrVII     883247 883309        1529 -      YGR192C   TDH3  
##  6 chrXI      519329 519379        1211 +      YKR042W   UTH1  
##  7 chrXI      259243 259325        1001 +      YKL096W-A CWP2  
##  8 chrXIV     501056 501135         967 +      YNL066W   SUN4  
##  9 chrXII     462525 462593         908 -      YLR154C-G <NA>  
## 10 chrXVI      96957  97056         799 -      YPL240C   HSP82 
## #  with 5,825 more rows

S4_30_df %>%
    arrange(desc(peak_height)) %>%
    print_gff_nice()

## # A tibble: 3,815 x 7
##    chromosome   start     end peak_height strand ID        Gene   
##    <chr>        <int>   <int>       <dbl> <chr>  <chr>     <chr>  
##  1 chrXIV      501056  501128        4205 +      YNL066W   SUN4   
##  2 chrIV      1017207 1017258        2059 -      YDR278C   YDR278C
##  3 chrXII      370111  370138        2025 -      YLR110C   CCW12  
##  4 chrIX       127571  127629        1786 +      YIL123W   SIM1   
##  5 chrXI       519323  519513        1611 +      YKR042W   UTH1   
##  6 chrXII      370039  370099        1575 -      YLR110C   CCW12  
##  7 chrX        121722  121863        1230 +      YJL159W   HSP150 
##  8 chrXV       797556  797591        1036 +      YOR247W   SRL1   
##  9 chrXV       797670  797716        1014 +      YOR247W   SRL1   
## 10 chrXII      462523  462578         983 -      YLR154C-G <NA>   
## #  with 3,805 more rows

S4_42_df %>%
    arrange(desc(peak_height)) %>%
    print_gff_nice()

## # A tibble: 10,551 x 7
##    chromosome  start    end peak_height strand ID        Gene  
##    <chr>       <int>  <int>       <dbl> <chr>  <chr>     <chr> 
##  1 chrXII     370037 370102       11273 -      YLR110C   CCW12 
##  2 chrXI      259243 259323        4837 +      YKL096W-A CWP2  
##  3 chrXII     370111 370138        4812 -      YLR110C   CCW12 
##  4 chrVII     883262 883309        4465 -      YGR192C   TDH3  
##  5 chrX       121713 121897        4142 +      YJL159W   HSP150
##  6 chrXI      519388 519521        3590 +      YKR042W   UTH1  
##  7 chrXIII    476276 476344        2522 -      YMR105C   PGM2  
##  8 chrXIV     501056 501131        2046 +      YNL066W   SUN4  
##  9 chrXVI     646055 646112        1865 +      YPR036W-A <NA>  
## 10 chrXII     462523 462578        1727 -      YLR154C-G <NA>  
## #  with 10,541 more rows
…
