Pileup Plots in R, for Ssd1 analysis
…
Ssd1_allsamples_df

## # A tibble: 115,408 x 10
##    target position nucleotide  hits substitutions deletions Sample Temperature
##    <chr>     <int> <fct>      <int>         <int>     <int> <chr>  <chr>      
##  1 CCW12         1 C              0             0         0 3_30   30C        
##  2 CCW12         2 U              0             0         0 3_30   30C        
##  3 CCW12         3 U              0             0         0 3_30   30C        
##  4 CCW12         4 U              0             0         0 3_30   30C        
##  5 CCW12         5 C              0             0         0 3_30   30C        
##  6 CCW12         6 C              0             0         0 3_30   30C        
##  7 CCW12         7 U              0             0         0 3_30   30C        
##  8 CCW12         8 A              0             0         0 3_30   30C        
##  9 CCW12         9 A              0             0         0 3_30   30C        
## 10 CCW12        10 C              0             0         0 3_30   30C        
## #  with 115,398 more rows, and 2 more variables: BioRep <chr>,
## #   SampleNice <chr>
…
